Using R to Manipulate and Visualize Data
…
Typically in class, I will include all of the packages and default settings that you need for an analysis.

Loading and Viewing Datasets

After loading the R libraries and setting up our work space, the next step is to load in some data. Here, we load a csv file into R and store the data set as an R object named food. Notice that R uses the arrow sign (<-) to assign the output of one function to a variable name.

food <- read_csv(file.path("data", "food.csv"))

The food data set contains information about various food items, with one row for each item of food (we call these observations) and one column for each thing that we know about the food items (we call these features). Running a line of code with just the name of the data set prints out the first few rows and columns of the data. Additional feature names are given at the bottom of the output.

food

## # A tibble: 61 x 17
##    item  food_group calories total_fat sat_fat cholesterol sodium carbs fiber
##    <chr> <chr>         <dbl>     <dbl>   <dbl>       <dbl>  <dbl> <dbl> <dbl>
##  1 Apple fruit            52       0.1   0.028           0      1 13.8    2.4
##  2 Aspa vegetable        20       0.1   0.046           0      2  3.88   2.1
##  3 Avoc fruit           160      14.6   2.13            0      7  8.53   6.7
##  4 Bana fruit            89       0.3   0.112           0      1 22.8    2.6
##  5 Chic grains          180       2.9   0.309           0    243 30.0    8.6
##  6 Stri vegetable        31       0.1   0.026           0      6  7.13   3.4
##  7 Beef  meat            288      19.5   7.73           87    384  0      0  
##  8 Bell vegetable        26       0     0.059           0      2  6.03   2  
##  9 Crab  fish             87       1     0.222          78    293  0.04   0  
## 10 Broc vegetable        34       0.3   0.039           0     33  6.64   2.6
## #  with 51 more rows, and 8 more variables: sugar <dbl>, protein <dbl>,
## #   iron <dbl>, vitamin_a <dbl>, vitamin_c <dbl>, wiki <chr>,
## #   description <chr>, color <chr>
…
Other common verbs include the mutate verb, which creates new variables as a function of the existing variables, and the select verb which selects a subset of the existing columns. Here, we compute the percentage of calories that are from fat (there are 9 calories in 1 gram of fat), arranges the data in descending order by the percentage of calories that are from fat, and then selects only the relevant variables.

food %>%
  mutate(calories_fat_perc = total_fat * 9 / calories * 100) %>%
  arrange(desc(calories_fat_perc)) %>%
  select(item, total_fat, calories, calories_fat_perc)

## # A tibble: 61 x 4
##    item       total_fat calories calories_fat_perc
##    <chr>          <dbl>    <dbl>             <dbl>
##  1 Sour Cream      20.9      214              87.9
##  2 Avocado         14.6      160              82.1
##  3 Cheese          26.9      350              69.2
##  4 Halibut         17.7      239              66.7
##  5 Lamb            20.7      292              63.8
##  6 Beef            19.5      288              60.9
##  7 Pork            17        271              56.5
##  8 Catfish         14.5      240              54.4
##  9 Chicken         13.4      237              50.9
## 10 Milk             3.2       60              48. 
## #  with 51 more rows
…
