Notebook 14: Example Third Projects - Montréal and Urbana-Champaign
…
class_rate

## # A tibble: 100 x 4
##    user_name class_rate gender perc_female
##    <chr>          <dbl> <chr>        <dbl>
##  1 John 1         0.857 male         0.407
##  2 Nelson         0.964 male         0.428
##  3 Edward         0.964 male         0.445
##  4 Ken            0.821 male         0.449
##  5 David 2        0.929 male         0.450
##  6 Alex 1         0.893 male         0.453
##  7 Eric 2         0.964 male         0.454
##  8 Patrick        0.964 male         0.464
##  9 Daniel         0.929 male         0.466
## 10 David 1        0.964 male         0.468
## # … with 90 more rows
…
