Notebook 04: Penalized Regression
…
theme_set(theme_minimal())
options(dplyr.summarise.inform = FALSE)
options(width = 77L)

City Tempurature Data

Today we will start by looking at a small data set of temperatures from 327 cities across the world.

temps <- read_csv("data/city_temps_yr.csv")
temps

## # A tibble: 327 x 14
##      may country  city    jan   feb   mar   apr   jun   jul   aug   sep   oct
##    <dbl> <chr>    <chr> <dbl> <dbl> <dbl> <dbl> <dbl> <dbl> <dbl> <dbl> <dbl>
##  1  27   Ivory C Gagn  26    27    27    27    26    25    25    25    26  
##  2  26   Ivory C Boua  27    28    28    27    25    24    24    24    25  
##  3  27   Ivory C Abid  27    28    28    28    26    25    24    25    26  
##  4  27   Ivory C Odie  25    27    28    28    26    25    25    25    25  
##  5  27   Benin    Coto  27    28    28    28    26    26    25    26    26  
##  6  27   Benin    Para  26    28    29    29    26    25    25    25    26  
##  7  30   Benin    Kandi  25    27    31    32    28    26    26    26    27  
##  8  27   Togo     Lom   27    28    28    28    26    25    25    26    26  
##  9  30   Togo     Mango  27    30    31    31    27    26    26    26    27  
## 10  28.4 Ghana    Accra  28.8  29.4  29.6  29.5  26.8  26.3  25.9  26.8  26.2
## #  with 317 more rows, and 2 more variables: nov <dbl>, dec <dbl>
…
