Notebook 11: Cluster Analysis
…
Re-compute the cluster centers as the average value of all the points in a cluster.

Take the new cluster centers, and repeat the process (computer distances, reassign to groups, and recompute the centers) iteratively until convergence.

The algorithm is not entirely deterministic because of the random starting points. Typically, the algorithm is run several times and the best clustering is chosen. How do we define the best in the case of a clustering algorithm? A typical method is to measure the sum of squared distances to the cluster centers, a quantity that a good clustering will minimize.

To compute k-means clustering, we can use the sm_kmeans function. Notice that the algorithm requires setting the number of clusters; often this takes a bit of guesswork and trial and error.

token %>%
  cnlp_utils_tfidf(token_var = "lemma", doc_set = food$doc_id) %>%
  sm_tidy_pca(n = 2) %>%
  sm_kmeans(clusters = 3)

## # A tibble: 61 x 4
##    document          v1       v2 cluster
##    <chr>          <dbl>    <dbl>   <dbl>
##  1 Apple        0.0778   0.132         2
##  2 Asparagus    0.0708   0.0317        3
##  3 Avocado      0.151    0.268         2
##  4 Banana       0.0458   0.0615        3
##  5 Chickpea     0.0660  -0.0242        3
##  6 String Bean  0.0196   0.00154       3
##  7 Beef        -0.00245 -0.0314        3
##  8 Bell Pepper  0.0376   0.0393        3
##  9 Crab        -0.0991   0.0627        1
## 10 Broccoli     0.0866   0.0941        3
## #  with 51 more rows
…
