Notebook 01: Language of Predictive Models
…
theme_set(theme_minimal())
options(dplyr.summarise.inform = FALSE)
options(width = 77L)

Tea Reviews

We are going to start by looking at a data set of tea reviews. Specifically, tea reviews from the Adagio Tea website. I collected this data set a few years ago, so it should be similar but not exactly the same as what is one the site today. Lets read the data into R:

tea <- read_csv(file.path("data", "tea.csv"))
tea

## # A tibble: 238 x 5
##    score name                type  price num_reviews
##    <dbl> <chr>               <chr> <dbl>       <dbl>
##  1    96 irish_breakfast     black    10        3675
##  2    95 earl_grey_bravo     black    10        3520
##  3    95 golden_monkey       black    27        1125
##  4    96 black_dragon_pearls black    32        1748
##  5    95 yunnan_noir         black    17         988
##  6    95 earl_grey_moonlight black    10        2510
##  7    93 english_breakfast   black    17        1008
##  8    92 keemun_concerto     black    17         499
##  9    95 yunnan_gold         black    40        1094
## 10    94 ceylon_sonata       black    12        1525
## #  with 228 more rows
…
Notice that this line under-guesses most of the score of teas, particularly if the number of reviews is low.

Brute Force

How can we figure out what the best alpha and beta are for this model? The most straightforward way would be to just try a large number of values and see which one minimizes the response. This is largely impractical but useful to see in this small example. It will also let you see some more involved R code.

To start, we construct variables to hold the best sum of squares, alpha, and beta values. We then create a double loop cycling over all combinations of alpha and beta and testing whether the given configuration gives a better sum of squares compared to our current best value.

params <- expand_grid(
  a = seq(75, 120, by = 0.1), b = seq(0.0001, 0.01, by = 0.00001), sum_sqrs = NA_real_
)
params

## # A tibble: 446,941 x 3
##        a       b sum_sqrs
##    <dbl>   <dbl>    <dbl>
##  1    75 0.0001        NA
##  2    75 0.00011       NA
##  3    75 0.00012       NA
##  4    75 0.00013       NA
##  5    75 0.00014       NA
##  6    75 0.00015       NA
##  7    75 0.00016       NA
##  8    75 0.00017       NA
##  9    75 0.00018       NA
## 10    75 0.00019       NA
## #  with 446,931 more rows

params %>%
  rowwise() %>%
  mutate(sum_sqrs = sum((tea$score - (a + tea$num_reviews * b))^2)) %>%
  ungroup() %>%
  arrange(sum_sqrs)

## # A tibble: 446,941 x 3
##        a       b sum_sqrs
##    <dbl>   <dbl>    <dbl>
##  1  92.3 0.0009      866.
##  2  92.3 0.00089     866.
##  3  92.3 0.00091     866.
##  4  92.3 0.00088     866.
##  5  92.3 0.00092     866.
##  6  92.3 0.00087     866.
##  7  92.3 0.00093     866.
##  8  92.3 0.00086     866.
##  9  92.3 0.00094     866.
## 10  92.2 0.00098     866.
## #  with 446,931 more rows
…
Our brute-force solution is actually quote close to this! Of course, it depended on me knowing approximately what the right slope and intercept should be. In this case that was easy graphically, but in more complex example it is a much more challenging task.

We can use the predict function to fit predictions for model to our data:

tea %>%
  mutate(score_pred_lm = predict(model, newdata = .)) %>%
  select(score, name, score_pred_lm)

## # A tibble: 238 x 3
##    score name                score_pred_lm
##    <dbl> <chr>                       <dbl>
##  1    96 irish_breakfast              95.7
##  2    95 earl_grey_bravo              95.5
##  3    95 golden_monkey                93.3
##  4    96 black_dragon_pearls          93.9
##  5    95 yunnan_noir                  93.2
##  6    95 earl_grey_moonlight          94.6
##  7    93 english_breakfast            93.2
##  8    92 keemun_concerto              92.7
##  9    95 yunnan_gold                  93.3
## 10    94 ceylon_sonata                93.7
## #  with 228 more rows
…
Training and Validation Data

So far we have been using our tea data set to build a predictive model and then to evaluate it. We are cheating a bit here, because its fairly easy to make predictions about something we have already seen. In predictive modeling, a standard way of avoiding this is to randomly split our data set into two different groups: a training set and a validation set (other terms are sometimes used, but these are what I will call them). We can then fit our model parameters using the training data and then validate how well our model fits on the validation set.

Here is some code to add an indicator variable to the data splitting the data into a training and validation observations. The seed makes sure that the split is consistent; I have chosen to split the data into 60% training and 40% validation.

set.seed(1)

tea <- read_csv(file.path("data", "tea.csv")) %>%
  mutate(train_id = if_else(runif(n()) < 0.6, "train", "valid"))
tea

## # A tibble: 238 x 6
##    score name                type  price num_reviews train_id
##    <dbl> <chr>               <chr> <dbl>       <dbl> <chr>   
##  1    96 irish_breakfast     black    10        3675 valid   
##  2    95 earl_grey_bravo     black    10        3520 valid   
##  3    95 golden_monkey       black    27        1125 train   
##  4    96 black_dragon_pearls black    32        1748 train   
##  5    95 yunnan_noir         black    17         988 train   
##  6    95 earl_grey_moonlight black    10        2510 valid   
##  7    93 english_breakfast   black    17        1008 train   
##  8    92 keemun_concerto     black    17         499 valid   
##  9    95 yunnan_gold         black    40        1094 train   
## 10    94 ceylon_sonata       black    12        1525 valid   
## #  with 228 more rows
…
