Notebook 13: Unsupervised Learning
…
Today we make a shift towards a different type of analysis. So far we have been mostly interested in a large collection of texts with the goal of associating features in predicting some response variable. Now, we start to consider the case where we are interested in understanding specific documents in a corpus. We will serve two purposes today by introducing some new methods while also introducing the form of the third project.

Yelp Dataset

The third project works with a collection of reviews from the website Yelp. It is similar to the Amazon produce reviews, but contains significantly more metadata and more authors. I have also a bit cleaner than the Amazon data. Each group has been given a different city of data. In the notes I will look at data from Toronto.

Lets load the dataset into R and look at the full data table:

yelp <- read_csv("data/toronto.csv.gz")
token <- read_csv("data/toronto_token.csv.gz")

yelp

## # A tibble: 7,000 x 12
##    doc_id   train_id user_id   user_name gender gender_prob stars b_name     
##    <chr>    <chr>    <chr>     <chr>     <chr>        <dbl> <dbl> <chr>      
##  1 doc00001 valid    uid_0000 Kat       female           1     3 Other      
##  2 doc00002 valid    uid_0000 Kat       female           1     4 Ed's Real 
##  3 doc00003 valid    uid_0000 Kat       female           1     1 Burrito Bo
##  4 doc00004 valid    uid_0000 Kat       female           1     4 Other      
##  5 doc00005 train    uid_0000 Kat       female           1     4 Other      
##  6 doc00006 valid    uid_0000 Kat       female           1     4 Other      
##  7 doc00007 valid    uid_0000 Kat       female           1     5 Other      
##  8 doc00008 valid    uid_0000 Kat       female           1     5 Other      
##  9 doc00009 train    uid_0000 Kat       female           1     3 Other      
## 10 doc00010 valid    uid_0000 Kat       female           1     3 Other      
## #  with 6,990 more rows, and 4 more variables: biz_category <chr>,
## #   lon <dbl>, lat <dbl>, text <chr>

You will see that, in addition to the user name and user id (note, these are uniquely defined; you can use either one), there is also other information. For example, we have a predicted gender for the reviewer, the number of stars the review was given, the business name, the business category, and the latitude and longitude of the business. Note that the variable b_name collapses less common businesses into an Other category.

The tokens data set contains the same columns as in our other datasets; I have also put several important variables directly in the tokens table to make them easy to work with.

token

## # A tibble: 1,405,488 x 14
##    doc_id   user_name gender biz_category b_name   sid   tid token 
##    <chr>    <chr>     <chr>  <chr>        <chr>  <dbl> <dbl> <chr> 
##  1 doc00001 Kat       female Other        Other      1     1 I     
##  2 doc00001 Kat       female Other        Other      1     2 have  
##  3 doc00001 Kat       female Other        Other      1     3 a     
##  4 doc00001 Kat       female Other        Other      1     4 good  
##  5 doc00001 Kat       female Other        Other      1     5 friend
##  6 doc00001 Kat       female Other        Other      1     6 who   
##  7 doc00001 Kat       female Other        Other      1     7 spends
##  8 doc00001 Kat       female Other        Other      1     8 $     
##  9 doc00001 Kat       female Other        Other      1     9 50    
## 10 doc00001 Kat       female Other        Other      1    10 a     
## #  with 1,405,478 more rows, and 6 more variables: token_with_ws <chr>,
## #   lemma <chr>, upos <chr>, xpos <chr>, tid_source <dbl>, relation <chr>
…
And again, how well does this match your intuition?

Distances

One way to understand the structure of our data in the high-dimensional space of the TF-IDF matrix is to compute the distance between documents. We could do this with typical Euclidean distances. However, this would by heavily biased based on the number of words in each document. A better approach is to look at the angle between two documents. Look at the two word example above to get some intuition for why.

We can compute angle distances that with the function sm_tidy_angle_distance():

token %>%
  cnlp_utils_tfidf(doc_var = "biz_category", token_var = "lemma") %>%
  sm_tidy_angle_distance()

## # A tibble: 1,225 x 3
##    document1                 document2 distance
##    <chr>                     <chr>        <dbl>
##  1 Other                     Other        0    
##  2 Ice Cream & Frozen Yogurt Other        0.422
##  3 Diners                    Other        0.399
##  4 Bakeries                  Other        0.394
##  5 Wine Bars                 Other        0.385
##  6 Caribbean                 Other        0.451
##  7 Pubs                      Other        0.397
##  8 French                    Other        0.401
##  9 Grocery                   Other        0.377
## 10 Italian                   Other        0.379
## #  with 1,215 more rows

After removing self-similarities, lets see what the closest neighbor is to each document:

token %>%
  cnlp_utils_tfidf(doc_var = "biz_category", token_var = "lemma") %>%
  sm_tidy_angle_distance() %>%
  filter(document1 < document2) %>%
  group_by(document1) %>%
  arrange(distance) %>%
  slice_head(n = 1) %>%
  ungroup() %>%
  arrange(distance)

## # A tibble: 34 x 3
##    document1      document2    distance
##    <chr>          <chr>           <dbl>
##  1 Japanese       Sushi Bars      0.266
##  2 Indian         Pakistani       0.267
##  3 Cafes          Coffee & Tea    0.307
##  4 Noodles        Vietnamese      0.317
##  5 Canadian (New) Other           0.322
##  6 Comfort Food   Other           0.353
##  7 Bakeries       Desserts        0.360
##  8 Italian        Wine Bars       0.364
##  9 Gastropubs     Pubs            0.365
## 10 Chinese        Dim Sum         0.366
## #  with 24 more rows
…
We can compute principal components using the helper function sm_tidy_pca. We will grab the first 4 components here:

token %>%
  cnlp_utils_tfidf(
    doc_set = unique(yelp$biz_category),
    min_df = 0.001,
    max_df = 1.0,
    max_features = 10000,
    doc_var = "biz_category",
    token_var = "token"
  ) %>%
  sm_tidy_pca(n = 4)

## # A tibble: 35 x 5
##    document                      v1      v2      v3      v4
##    <chr>                      <dbl>   <dbl>   <dbl>   <dbl>
##  1 Other                     0.290  -0.352   0.0281  0.0218
##  2 Ice Cream & Frozen Yogurt 0.0510 -0.121   0.126  -0.114 
##  3 Diners                    0.0917 -0.169  -0.0155  0.111 
##  4 Bakeries                  0.0752 -0.210   0.262  -0.238 
##  5 Wine Bars                 0.113  -0.198  -0.135   0.0640
##  6 Caribbean                 0.0241 -0.0189 -0.101  -0.0321
##  7 Pubs                      0.0648 -0.223  -0.137   0.188 
##  8 French                    0.0870 -0.161  -0.0404  0.0353
##  9 Grocery                   0.0790 -0.113   0.0791 -0.130 
## 10 Italian                   0.0969 -0.190  -0.0687  0.0703
## #  with 25 more rows
…
token %>%
  filter(upos == "NOUN") %>%
  cnlp_utils_tfidf(
    min_df = 0, max_df = 1, max_features = 400
  ) %>%
  t() %>%
  sm_tidy_angle_distance(item_name = "word") %>%
  filter(word1 < word2) %>%
  group_by(word1) %>%
  arrange(distance) %>%
  slice_head(n = 1) %>%
  ungroup() %>%
  arrange(distance)

## # A tibble: 399 x 3
##    word1   word2      distance
##    <chr>   <chr>         <dbl>
##  1 cream   ice           0.237
##  2 crust   pizza         0.335
##  3 card    credit        0.351
##  4 dish    restaurant    0.361
##  5 food    place         0.364
##  6 roll    sushi         0.370
##  7 sashimi sushi         0.372
##  8 broth   noodle        0.376
##  9 noodle  soup          0.377
## 10 burger  fry           0.378
## #  with 389 more rows
…
