Notebook 10: Documents as Vectors
…
theme_set(theme_minimal())
options(dplyr.summarise.inform = FALSE)
options(width = 77L)

Food Data

Today we make a shift towards a different type of textual analysis. So far we have been mostly interested in a large collection of texts with the goal of associating features in predicting some response variable. Now, we start to consider the case where we are interested in understanding specific documents in a corpus. Typically this will involve a smaller collection of longer documents. To illustrate this, we will look at a data set of Wikipedia pages corresponding to 61 food items (the same as in the example data from 289, if you were in that class). We will load the corpus and the associated tokens. This time, we will not worry about spliting the data into training and validation sets.

food <- read_csv("data/food_page.csv")
token <- read_csv("data/food_page_token.csv.gz")

food

## # A tibble: 61 x 2
##    doc_id      text                                                          
##    <chr>       <chr>                                                         
##  1 Apple       "An apple is a sweet, edible fruit produced by an apple tree 
##  2 Asparagus   "Asparagus, or garden asparagus, folk name sparrow grass,  sc
##  3 Avocado     "The avocado (Persea americana), a tree with probable origin 
##  4 Banana      "A banana is an edible fruit  botanically a berry  produced
##  5 Chickpea    "The chickpea or chick pea (Cicer arietinum) is an annual leg
##  6 String Bean "Green beans are the unripe, young fruit and protective pods 
##  7 Beef        "Beef is the culinary name for meat from cattle, particularly
##  8 Bell Pepper "The bell pepper (also known as sweet pepper, pepper or capsi
##  9 Crab        "Callinectes sapidus (from the Greek calli- = \"beautiful\", 
## 10 Broccoli    "Broccoli is an edible green plant in the cabbage family (fam
## #  with 51 more rows

Notice that the document ids are a bit more informative that usual, and indicate the name of the Wikipedia page in question.

TF-IDF

We have already made extensive use of the term frequency matrix in our predictive models. Here, we are going to consider a variation of this data structure that includes some scaling of the values that can be useful for exploring a corpus in a different way. It will be useful to have a way to work with the term frequencies in a data frame, with one value in each row, as follows:

token %>%
  sm_text_tfidf(token_var = "lemma", min_df = 0, max_df = 1)

## # A tibble: 55,777 x 4
##    doc_id token       tf tfidf
##    <chr>  <chr>    <int> <dbl>
##  1 Apple  "\n"        60 0    
##  2 Apple  "-"         33 0    
##  3 Apple  "-PRON-"    74 0    
##  4 Apple  ""          1 0.721
##  5 Apple  ""          6 4.03 
##  6 Apple  ","        308 0    
##  7 Apple  ";"          9 0.408
##  8 Apple  ":"          5 0.674
##  9 Apple  "."        215 0    
## 10 Apple  "'"         69 4.07 
## #  with 55,767 more rows
…
\[ \text{tfidf} = \frac{(1 + log_2(\text{tf}))}{log_2(\text{df})} \]

The score gives a measurement of how important a term is in describing a document in the context of the other documents. Note that this is a popular choice for the scaling functions, but they are not universal and other software way use different choices.

We can use TF-IDF to try to measure the most important words in each document. Here, we filter out particularly rare terms that occur in less than 10% of the documents, and then find the 8 nouns that have the highest value of tfidf for each document:

token %>%
  filter(upos == "NOUN") %>%
  sm_text_tfidf(min_df = 0.1) %>%
  arrange(desc(tfidf)) %>%
  group_by(doc_id) %>%
  slice(1:8) %>%
  summarize(sm_paste(token))

## # A tibble: 61 x 2
##    doc_id      token_paste                                                   
##    <chr>       <chr>                                                         
##  1 Apple       apple; mythology; allergy; parent; tree; reaction; genome; fe
##  2 Asparagus   smell; shoot; odor; sulfur; festival; city; ability; stir     
##  3 Avocado     hectare; horse; chicken; dog; slice; tree; salad; banana      
##  4 Banana      banana; potassium; ethylene; starch; diversity; dessert; shoo
##  5 Beef        beef; cattle; cow; cut; pound; poultry; pot; muscle           
##  6 Bell Pepper pepper; spice; fruit; colour; gene; c; vegetable; membrane    
##  7 Broccoli    cabbage; head; stalk; bud; cluster; weather; person; flower   
##  8 Brown Rice  rice; cereal; grain; magnesium; freezing; cup; layer; child   
##  9 Cabbage     cabbage; kilogram; head; outbreak; pollination; insect; spot;
## 10 Cantaloupe  ton; orange; firm; flesh; carotenoid; cutting; pathogen; fruit
## #  with 51 more rows
…
The TF-IDF data set is an example of a long-format data set. Conceptually, we can think about the idea of converting this into a wide-format. Here, each row would correspond to a document; variables would exist for each unique token, giving counts corresponding to each document. This object can get quite large, but writing the code is relatively straightforward using the techniques. Here, we will filter to include only two lemmas, animal and food, and pivot the TF-IDF data set into a wide format.

token %>%
  sm_text_tfidf() %>%
  filter(token %in% c("animal", "food")) %>%
  select(doc_id, token, tf) %>%
  pivot_wider(
    names_from = "token",
    values_from = "tf",
    names_prefix = "lemma_",
    values_fill = list("tf" = 0)
  )

## # A tibble: 50 x 3
##    doc_id  lemma_food lemma_animal
##    <chr>        <int>        <int>
##  1 Apple            3            0
##  2 Avocado          2            4
##  3 Banana          20            0
##  4 Beef             1           14
##  5 Cabbage          3            1
##  6 Carrot           4            0
##  7 Catfish          9            0
##  8 Celery           6            0
##  9 Cheese          10           10
## 10 Chicken         13           14
## #  with 40 more rows
…
The take-away from this illustration is that a wider-format of the term frequency values provides an interesting way of grouping and exploring the relationships between documents. Generally, we do not want to actually use the pivot_wider function because it is too slow and clunky to work with a data set that may have thousands of columns. Instead, we will use a different approach with allows us to think of documents as living in a high dimensional space without having to work with these large dimensional spaces directly.

Dimension Reduction

Consider extending the illustration in the previous section to include a larger set of lemmas. While we do not have an easy way of plotting the concept, we can try to imagine each document as a an arrow from the origin to a point in a very high dimensional space (one dimension for each unique token in the term frequency dataset). In this section we will see a way of trying to work with this high-dimensional space.

It was mentioned above that the pivot_wider function is not a good choice for making a wider version of a term frequency data set. A better choice is the function cnlp_utils_tf, provided by cleanNLP, which we have used extensively so far in this course.

Principal component analysis is a common method for taking a high-dimensional data set and converting it into a smaller set of dimensions that capture many of the most interesting aspects of the higher dimensional space. The first principal components is defined as a direction in the high-dimensional space that captures the most variation in the inputs. The second component is a dimension perpendicular to the first that captures the highest amount of residual variance. Additional components are defined similarly. We can compute principal components from the dgCMatrix using the helper function sm_tidy_pca:

token %>%
  cnlp_utils_tfidf(token_var = "lemma") %>%
  sm_tidy_pca(n = 2)

## # A tibble: 61 x 3
##    document          v1       v2
##    <chr>          <dbl>    <dbl>
##  1 Apple       -0.0778   0.132  
##  2 Asparagus   -0.0708   0.0317 
##  3 Avocado     -0.151    0.268  
##  4 Banana      -0.0458   0.0615 
##  5 Chickpea    -0.0660  -0.0242 
##  6 String Bean -0.0196   0.00154
##  7 Beef         0.00245 -0.0314 
##  8 Bell Pepper -0.0376   0.0393 
##  9 Crab         0.0991   0.0627 
## 10 Broccoli    -0.0866   0.0941 
## #  with 51 more rows
…
As with the principal components, the exact dimensions are unimportant here, its the relationship between the documents that counts. Notice that the pages are less clumped together here, but also that the structures from the principal component analysis are not as clearly defined. The benefits of UMAP become more apparent with larger datasets.

Document Distance

In the previous two sections we treated documents as being points in a high-dimensional space, and commented that our primary objective is understanding the relationships between the documents in this space. We can approach this question more directly by computing the distances between documents in the high-dimensional space. This can be done by using the sm_tidy_distance function applied to the TF-IDF matrix:

token %>%
  cnlp_utils_tfidf(token_var = "lemma") %>%
  sm_tidy_distance()

## # A tibble: 3,721 x 3
##    document1   document2 distance
##    <chr>       <chr>        <dbl>
##  1 Apple       Apple           0 
##  2 Asparagus   Apple         397.
##  3 Avocado     Apple         392.
##  4 Banana      Apple         665.
##  5 Chickpea    Apple         402.
##  6 String Bean Apple         402.
##  7 Beef        Apple         483.
##  8 Bell Pepper Apple         409.
##  9 Crab        Apple         492.
## 10 Broccoli    Apple         394.
## #  with 3,711 more rows

The output gives the distance between every pair of documents. Self-pairs (the distance between Apple and Apple) are included to assist with other kinds of analysis. Using this output, we can join each page to its closest neighbor:

token %>%
  cnlp_utils_tfidf(token_var = "lemma") %>%
  sm_tidy_distance() %>%
  filter(document1 != document2) %>%
  group_by(document1) %>%
  arrange(distance) %>%
  slice_head(n = 1) %>%
  ungroup() %>%
  arrange(distance)

## # A tibble: 61 x 3
##    document1   document2  distance
##    <chr>       <chr>         <dbl>
##  1 Flounder    Penne          31.8
##  2 Penne       Flounder       31.8
##  3 Cantaloupe  Penne          33.0
##  4 Tangerine   Cantaloupe     39.2
##  5 Broccoli    Penne          42.2
##  6 Cauliflower Broccoli       44.2
##  7 Plum        Penne          49.5
##  8 Duck        Flounder       52.3
##  9 Grapefruit  Tangerine      54.2
## 10 Halibut     Flounder       57.1
## #  with 51 more rows

Unfortunately, these links are largely not very intuitive Penne and Flounder, for example, do not have very much in common. The issue here is that the length of each document has a strong influence on the distance between points. Returning to our illustrative example with just two lemmas, notice that Potato is actually closer to Milk than it is to Apple. As an alternative, we can compute the angle between two vectors using the function sm_tidy_angle_distance.

token %>%
  cnlp_utils_tfidf(token_var = "lemma") %>%
  sm_tidy_angle_distance() %>%
  filter(document1 < document2) %>%
  group_by(document1) %>%
  arrange(distance) %>%
  slice_head(n = 1) %>%
  ungroup() %>%
  arrange(distance)

## # A tibble: 60 x 3
##    document1 document2    distance
##    <chr>     <chr>           <dbl>
##  1 Potato    Sweet Potato    0.149
##  2 Milk      Yogurt          0.250
##  3 Cod       Haddock         0.264
##  4 Orange    Tangerine       0.264
##  5 Lobster   Scallop         0.302
##  6 Clam      Scallop         0.326
##  7 Broccoli  Cauliflower     0.329
##  8 Swordfish Tuna            0.336
##  9 Haddock   Swordfish       0.338
## 10 Peach     Pear            0.346
## #  with 50 more rows
…
token %>%
  filter(upos == "NOUN") %>%
  cnlp_utils_tfidf(
    min_df = 0, max_df = 1, max_features = 400
  ) %>%
  t() %>%
  sm_tidy_angle_distance(item_name = "word") %>%
  filter(word1 < word2) %>%
  group_by(word1) %>%
  arrange(distance) %>%
  slice_head(n = 1) %>%
  ungroup() %>%
  arrange(distance)

## # A tibble: 399 x 3
##    word1      word2      distance
##    <chr>      <chr>         <dbl>
##  1 percent    power        0.0875
##  2 government power        0.0904
##  3 country    government   0.115 
##  4 history    member       0.115 
##  5 bird       egg          0.119 
##  6 decade     population   0.123 
##  7 catch      fishing      0.128 
##  8 member     power        0.137 
##  9 city       power        0.139 
## 10 leaf       leave        0.150 
## #  with 389 more rows
…
