Lab 04
…
Median Tract Income

The dataset for todays lab uses U.S. Census data. Our prediction task is to predict the median income of a census tract (a small area approximately equal to a neighborhood in a city). There are a lot of variables in this data set, so it will be good to practice penalized regression with. The code below does a bit of data cleaning. I did not do this ahead of time because we will need the full dataset later in the semester. It removes a few variables that I do not want to use and restricts the data to only the lower-48 states.

set.seed(1)

tract <- read_csv(file.path("data", "tract_median_income.csv")) %>%
  mutate(train_id = if_else(runif(n()) < 0.1, "train", "valid")) %>%
  select(-income_q1, -income_q2, -income_q3, -income_q4, -income_p95) %>%
  filter(!(state %in% c("HI", "AK")))

tract

## # A tibble: 63,591 x 64
##    median_income   lon   lat state county cbsa_name cbsa_type total_population
##            <dbl> <dbl> <dbl> <chr> <chr>  <chr>     <chr>                <dbl>
##  1         60000 -86.5  32.5 AL    Autau Montgome Metropol              232
##  2         42971 -86.5  32.5 AL    Autau Montgome Metropol              261
##  3         43717 -86.5  32.5 AL    Autau Montgome Metropol              264
##  4         55814 -86.4  32.5 AL    Autau Montgome Metropol              499
##  5         57349 -86.4  32.5 AL    Autau Montgome Metropol              391
##  6         56985 -86.5  32.4 AL    Autau Montgome Metropol              267
##  7         37137 -86.4  32.4 AL    Autau Montgome Metropol              232
##  8         72917 -86.5  32.4 AL    Autau Montgome Metropol              248
##  9         56681 -86.5  32.5 AL    Autau Montgome Metropol              531
## 10         48033 -86.5  32.6 AL    Autau Montgome Metropol              271
## #  with 63,581 more rows, and 56 more variables: total_households <dbl>,
## #   median_age <dbl>, age_00_02 <dbl>, age_03_04 <dbl>, age_05_05 <dbl>,
## #   age_06_08 <dbl>, age_09_11 <dbl>, age_12_14 <dbl>, age_15_18 <dbl>,
## #   same_house <dbl>, same_county <dbl>, same_state <dbl>, avg_duration <dbl>,
## #   car_alone <dbl>, carpool <dbl>, public_transit <dbl>, walked <dbl>,
## #   transit_other <dbl>, at_home <dbl>, white_alone <dbl>, black_alone <dbl>,
## #   native_american_alone <dbl>, asian_alone <dbl>, pacific_alone <dbl>,
## #   other_alone <dbl>, multiracial <dbl>, healthcare_private <dbl>,
## #   healthcare_public <dbl>, healthcare_none <dbl>, housing_costs <dbl>,
…
