Lab 02
…
Lab 02

Diamonds

Here, we will apply the methods shown in the notes to a data set of diamonds. This is a classic statistics data set used in a lot of notes that you may find online. Our variable of interest is the price of each diamond.

set.seed(1)

diamond <- read_csv(file.path("data", "diamonds.csv")) %>%
  mutate(train_id = if_else(runif(n()) < 0.6, "train", "valid"))
diamond

## # A tibble: 1,000 x 11
##    price carat cut       color clarity depth table     x     y     z train_id
##    <dbl> <dbl> <chr>     <chr> <chr>   <dbl> <dbl> <dbl> <dbl> <dbl> <chr>   
##  1   787 0.28  Ideal     F     VVS2     62.6    55  4.2   4.23  2.64 valid   
##  2  2346 0.71  Very Good F     SI1      62.1    59  5.64  5.73  3.53 valid   
##  3   478 0.26  Ideal     G     VS1      62.1    55  4.09  4.12  2.55 train   
##  4  6389 1     Good      D     VS2      64.1    58  6.24  6.33  4.03 train   
##  5  5818 1.2   Good      I     VS1      59.6    61  6.84  6.89  4.09 train   
##  6  1369 0.570 Very Good G     SI1      63.4    57  5.26  5.21  3.32 valid   
##  7  2278 0.75  Ideal     E     SI2      62.1    57  5.81  5.85  3.62 train   
##  8   570 0.3   Ideal     F     VS1      62.6    57  4.29  4.34  2.7  valid   
##  9  2980 0.64  Good      F     IF       58.6    61  5.69  5.71  3.34 train   
## 10  2854 0.73  Premium   E     VS2      62      57  5.86  5.76  3.6  valid   
## #  with 990 more rows
…
What do you notice here? Answer While the training RMSE is lower than any other model by a large amount, the model is very overfit. Its RMSE on the validation set is several orders of magnitude larger than the constant model. There are just too many variables to learn accurately given the size of the data.

Cars

As a second data set, we will look at another class statistical programming data set of car models. The variable of interest is called cty, the fuel efficiency of the car in city traffic (miles per gallon).

set.seed(1)

mpg <- read_csv(file.path("data", "mpg.csv")) %>%
  mutate(train_id = if_else(runif(n()) < 0.6, "train", "valid"))
mpg

## # A tibble: 234 x 9
##      cty displ   cyl drv     hwy class   manufacturer  year train_id
##    <dbl> <dbl> <dbl> <chr> <dbl> <chr>   <chr>        <dbl> <chr>   
##  1    18   1.8     4 f        29 compact audi          1999 valid   
##  2    21   1.8     4 f        29 compact audi          1999 valid   
##  3    20   2       4 f        31 compact audi          2008 train   
##  4    21   2       4 f        30 compact audi          2008 train   
##  5    16   2.8     6 f        26 compact audi          1999 train   
##  6    18   2.8     6 f        26 compact audi          1999 valid   
##  7    18   3.1     6 f        27 compact audi          2008 train   
##  8    18   1.8     4 4        26 compact audi          1999 valid   
##  9    16   1.8     4 4        25 compact audi          1999 train   
## 10    20   2       4 4        28 compact audi          2008 valid   
## #  with 224 more rows
…
