Lab 04
…
Lab 04

Chicago Crimes

Three Types

Todays lab looks at a data set of reported crimes from the city of Chicago (if you were in my 289 class last semester, this should look familiar). Our prediction task is to predict the type of crime based on the features of the reported incident. To start, well look at a data set that has three crime types: battery, criminal damage, and theft.

set.seed(1)

chicago <- read_csv(file.path("data", "chi_crimes_3.csv")) %>%
  mutate(train_id = if_else(runif(n()) < 0.6, "train", "valid"))
chicago

## # A tibble: 30,000 x 9
##    crime_type    year month   day  hour location     latitude longitude train_id
##    <chr>        <dbl> <dbl> <dbl> <dbl> <chr>           <dbl>     <dbl> <chr>   
##  1 battery       2001    11    17    18 STREET           41.9     -87.6 valid   
##  2 battery       2005     8     6    11 ALLEY            41.7     -87.6 valid   
##  3 criminal da  2003     7     9    15 SMALL RETAI     41.9     -87.6 train   
##  4 theft         2012     3    27    22 RESIDENCE        41.7     -87.6 train   
##  5 criminal da  2003     9    19    12 HOSPITAL BU     41.8     -87.6 train   
##  6 criminal da  2003     1    16    21 OTHER            41.8     -87.6 valid   
##  7 theft         2012    10    19    19 RESIDENCE-G     41.9     -87.7 train   
##  8 criminal da  2009     8    24    22 SIDEWALK         41.6     -87.5 valid   
##  9 battery       2013    10     7    20 STREET           41.7     -87.6 train   
## 10 criminal da  2011     1    12    24 SCHOOL, PUB     41.9     -87.8 valid   
## #  with 29,990 more rows
…
Verify that more non-zero components are present at the minimul value of the CV-curve.

Twelve Types

Lets now load another version of the crimes data, this time with 12 different categories. The data set is large, so in the interest of time we will only use 5% of it for the training set to speed things along.

set.seed(1)

chicago12 <- read_csv(file.path("data", "chi_crimes_12.csv")) %>%
  mutate(train_id = if_else(runif(n()) < 0.05, "train", "valid"))
chicago12

## # A tibble: 120,000 x 9
##    crime_type    year month   day  hour location     latitude longitude train_id
##    <chr>        <dbl> <dbl> <dbl> <dbl> <chr>           <dbl>     <dbl> <chr>   
##  1 robbery       2013     8    20     9 COMMERCIAL      42.0     -87.7 valid   
##  2 motor vehic  2001    11    17    18 STREET           41.9     -87.6 valid   
##  3 robbery       2006    12    22    10 OTHER            41.9     -87.7 valid   
##  4 theft         2012     7    27    17 RESIDENCE P     42.0     -87.7 valid   
##  5 criminal tr  2002     3     8     2 OTHER            42.0     -87.7 valid   
##  6 deceptive p  2007     2    10    17 STREET           41.9     -87.7 valid   
##  7 battery       2015     7    28     9 HOTEL/MOTEL      41.9     -87.6 valid   
##  8 other offen  2005     3    16     7 AIRPORT/AIR     42.0     -87.9 valid   
##  9 other offen  2004     5     9     6 COMMERCIAL      42.0     -87.7 valid   
## 10 motor vehic  2005     8     6    11 ALLEY            41.7     -87.6 valid   
## #  with 119,990 more rows
…
