Lab 03
…
Lab 03

Flight Delays

Todays lab will look at a data set of flights. Each flight provides an indicator of whether the flight arrived at least 15 minutes later than expected. I have subset the data so that there are an equal number of delayed flights as their are non-delayed flights.

set.seed(1)

flights <- read_csv(file.path("data", "flights_small.csv")) %>%
  mutate(train_id = if_else(runif(n()) < 0.6, "train", "valid"))
flights

## # A tibble: 6,000 x 11
##    delayed month   day weekday arr_hour dep_hour origin dest  distance carrier
##      <dbl> <dbl> <dbl>   <dbl>    <dbl>    <dbl> <chr>  <chr>    <dbl> <chr>  
##  1       1     3    27       2       14       12 LAS    PHX        256 US     
##  2       1     8    18       6       19       17 PHL    MSP        980 NW     
##  3       0     3    14       3       21       20 BOS    PHL        280 US     
##  4       1     8     9       4       12       11 BOS    LGA        185 DL     
##  5       1    11    25       7       22       21 ATL    IAH        689 DL     
##  6       0     8     7       2       16       14 LAX    PHX        370 WN     
##  7       0     9    30       7       20       19 ATL    SAN       1891 DL     
##  8       1    11    12       1       19       17 EWR    ORD        719 UA     
##  9       0    12     9       7        8        6 DTW    ATL        594 FL     
## 10       1    10     6       6       17       16 SAN    LAS        258 WN     
## #  with 5,990 more rows, and 1 more variable: train_id <chr>
…
